S20180271A01Au Yuk Nam          FN 999.8
S20180311A02Chan Fo Wah         FN 868.6
S20180321A03Chow Ka Wai         FN 903.8
S20180371A04Fo Wai Chi          MN 911.5
S20180421A05Wong Sze Chi        FN 809.8
S20180011A06Keung Yuen Kwan     FN 636.5
S20180021A07Kuong Chi Wai       MN 782.7
S20190011A08Chu Chi Keung       FN 422.7
S20190021A09Wong Sze Man        FN 472.9
S20180431B01Lee Li Shan         FN 775.6
S20180451B02Wong Tai Chi        MN 924.9
S20180521B03Yau Yuk Man         MN 889.9
S20180531B04Yuen Chi Chi        FN 851.9
S20180681B05Yuen Kwok Keung     MN 874.4
S20180031B07Yuen Yiu Yiu        FN 709.7
S20180701C01Fong Man Man        FN 808.6
S20180711C02Tsang Wai Ki        MN 723.2
S20180761C03Tsang Wai Wai       FN 834.2
S20180781C04Yu Chi Hung         MN 840.8
S20180821C05Yu Wan Wan          FN 733.2
S20189981C06Yuen Wan            FN 785.5
S20180041C07Zeng Yu Hin         MN 822.7
S20180871D01Au Dan Hung         FN 768.1
S20180931D02Chow Lok Lok        MN 672.5
S20180991D03Fong Yiu Gat        MN 533.1
S20181001D04Keung Hung          FN 726.2
S20181031D05Tsang Chi Wai       MN 843.5
S20180051D07Wu Kwok Hung        MN 761.7
S20170382A01Chan Tai Man        MN 766.1
S20170392A02Cheng Lai Hong      FN 800.3
S20170452A03Cheung Man Man      MN 762.8
S20170482A05Yip Kwok Keung      MN 377.1
S20170012A07Tang Hau Leng       FN 685.2
S20170552B01Au Ka Wai           FN 723.1
S20170592B02Chau Man Ben        MN 738.6
S20170602B03Leung Lak           MN 639.3
S20170642B04Leung Chung Ying    FN 586.6
S20170672B05Poon Yu Lao         FN 508.9
S20179982B06Wan Yao Shing       FN 707.9
S20170682C01Au Yeung Chi Keung  MN 759.9
S20170692C02Chau Sze Wai        FN 768.3
S20170702C03Ho Lai Yee          FN 761.4
S20170732C04Ho Pui Shing        MN 875.6
S20170752C05Sun Chi Wai         MN 718.4
S20170772D01Chow Leung Oi       FN 654.0
S20170782D02Leung Oi Ling       FN 704.4
S20160852D03Man Siu Yin         FN 670.3
S20170812D04Sun Man Kin         MN 706.4
S20170822D05Tam Pak Shing       MN 498.1
S20179962D06Sun Chiu Kwok       MN 610.7
S20189962S07Wong Kwok Shing     MY 701.8
S20161083A01Chan Ti Wan         MN 805.3
S20141373A02Chow Lok Hung       MN 652.6
S20161263A03Lee Peter           MN 742.1
S20160013A04Man Kin Lung        MN 541.6
S20160043A05Yu Wan Chi          FN 677.5
S20169993A06Ma Shing Keung      MN 691.4
S20160063B01Au Man Kin          MN 656.0
S20160073B02Chow Ka Chun        FN 504.2
S20160103B03Tong Wan Cheung     MN 344.2
S20160183B04Yu Kwok Kwun        MN 714.0
S20160283B05Yuen Man Keung      FN 740.8
S20169983B06David Peterson      MN 728.2
S20160343C01Hui Cheung Gei      FN 794.4
S20160363C02Keung Yuen Kung     MN 817.0
S20160393C03Leung Chi Chun      MN 797.9
S20160403C04Man Tin Chun        FN 762.7
S20160423C05Ngai Chi Shing      MN 414.5
S20169973C06Yuen Kwok Fat       MN 429.7
S20160473D01Chan Chi Yuen       MN 839.1
S20160553D02Chiu Cho Lok        MN 579.3
S20161323D03Poon Chi Lai        FN 855.8
S20161333D04Wong Sun Keung      MN 728.0
S20160643D05Yu Yuen Lak         MN 986.8
S20169963D06Yuen Tze Shing      FN 931.1
S2018999SS01Yuen Yiu Tin        MY 672.5
S2018978SS02Tsang Chung Ying    FY 670.9
S2017999SS03Fong Wai Ming       FY 999.0
S2017997SS04Chan Kin Man        MY 643.7
